[
    {
        "name": "Missile Data",
        "type": "toggle",
        "loop": true,
        "img": "images/items/missile_data_alt.png",
        "codes": "missile_data"
    },
    {
        "name": "Super Missile",
        "type": "toggle",
        "loop": true,
        "img": "images/items/super_missile_data.png",
        "codes": "super_missile_data"
    },
    {
        "name": "Ice Missile",
        "type": "toggle",
        "loop": true,
        "img": "images/items/ice_missile_data.png",
        "codes": "ice_missile_data"
    },
    {
        "name": "Diffusion Missile",
        "type": "toggle",
        "loop": true,
        "img": "images/items/diffusion_missile_data.png",
        "codes": "diffusion_missile_data"
    }
]