[
    {
        "name": "all_sectors",
        "img": "images/maps/all_sectors.png"
    },
    {
        "name": "sector_0",
        "img": "images/maps/sector_0.png"
    },
    {
        "name": "sector_1",
        "img": "images/maps/sector_1.png"
    },
    {
        "name": "sector_2",
        "img": "images/maps/sector_2.png"
    },
    {
        "name": "sector_3",
        "img": "images/maps/sector_3.png"
    },
    {
        "name": "sector_4",
        "img": "images/maps/sector_4.png"
    },
    {
        "name": "sector_5",
        "img": "images/maps/sector_5.png"
    },
    {
        "name": "sector_6",
        "img": "images/maps/sector_6.png"
    }
]
