{
    "tracker_broadcast": {
        "type": "container",
        "width": 320,
        "height": 320,
        "content": [
            {
                "type": "itemgrid",
                "h_alignment": "left",
                "v_alignment": "top",
                "item_margin": "2",
                "item_size": 48,
                "rows": [
                    ["charge_beam", "wide_beam", "plasma_beam", "wave_beam", "ice_beam", "high_jump"],
                    ["missile_data", "super_missile_data", "ice_missile_data", "diffusion_missile_data", "missile_tank", "space_jump"],
                    ["morph_ball", "bomb_data", "power_bomb_data", "speed_booster", "power_bomb_tank", "screw_attack"],
                    ["broadcast_lock_1", "broadcast_lock_2", "broadcast_lock_3", "broadcast_lock_4", "energy_tank", "varia_suit"],
                    [ "arachnus", "torizo", "zazabi", "serris", "varia_core_x", "gravity_suit"],
                    ["widecore", "yakuza", "nettori", "nightmare", "box2", "ridley"]
                ]
            }
        ]
    }
}
