[
    {
        "name": "setting",
        "sections": [
            {
                "name": "damage_runs",
                "access_rules": ["setting_damage_runs"],
                "item_count": 1
            },
            {
                "name": "oob_enabled",
                "access_rules": ["[setting_oob],morph_ball,high_jump"],
                "item_count": 1
            }
        ]
    }
]
